<?xml version="1.0" encoding="UTF-8"?>
<svg width="29px" height="28px" viewBox="0 0 29 28" version="1.1" xmlns="http://www.w3.org/2000/svg" xmlns:xlink="http://www.w3.org/1999/xlink">
    <!-- Generator: Sketch 55.1 (78136) - https://sketchapp.com -->
    <title>Group 8</title>
    <desc>Created with Sketch.</desc>
    <defs>
        <polygon id="path-1" points="0 0.195549145 28.6504957 0.195549145 28.6504957 7.38945455 0 7.38945455"></polygon>
    </defs>
    <g id="Welcome" stroke="none" stroke-width="1" fill="none" fill-rule="evenodd">
        <g id="Product-1" transform="translate(-975.000000, -466.000000)">
            <g id="Group-8" transform="translate(975.000000, 466.000000)">
                <path d="M14.3760556,2.29854545 C17.4972407,2.29854545 20.037463,4.82787879 20.037463,7.93757576 C20.037463,10.4889697 17.0432037,15.6944242 14.3760556,19.5338182 C11.7089074,15.6952727 8.71464815,10.4906667 8.71464815,7.93757576 C8.71464815,4.82787879 11.2540185,2.29854545 14.3760556,2.29854545 M14.3760556,22.6621818 C14.7397963,22.6621818 15.0865,22.4882424 15.3028704,22.1972121 C15.5907963,21.8111515 22.3442778,12.6814545 22.3442778,7.93757576 C22.3442778,3.56024242 18.7699074,0 14.3760556,0 C9.9822037,0 6.40783333,3.56024242 6.40783333,7.93757576 C6.40783333,12.6950303 13.1621667,21.812 13.4492407,22.1972121 C13.6656111,22.4882424 14.0123148,22.6621818 14.3760556,22.6621818" id="Fill-1" fill="#50555D"></path>
                <path d="M14.3760556,6.5409697 C15.1486852,6.5409697 15.7782037,7.16715152 15.7782037,7.93757576 C15.7782037,8.70715152 15.1486852,9.33333333 14.3760556,9.33333333 C13.6034259,9.33333333 12.9739074,8.70715152 12.9739074,7.93757576 C12.9739074,7.16715152 13.6034259,6.5409697 14.3760556,6.5409697 M18.0850185,7.93757576 C18.0850185,5.90036364 16.4213519,4.24242424 14.3760556,4.24242424 C12.3307593,4.24242424 10.6670926,5.90036364 10.6670926,7.93757576 C10.6670926,9.97393939 12.3307593,11.6318788 14.3760556,11.6318788 C16.4213519,11.6318788 18.0850185,9.97393939 18.0850185,7.93757576 Z" id="Fill-3" fill="#50555D"></path>
                <g id="Group-7" transform="translate(0.018513, 20.363636)">
                    <mask id="mask-2" fill="white">
                        <use xlink:href="#path-1"></use>
                    </mask>
                    <g id="Clip-6"></g>
                    <path d="M23.2987817,0.242105402 C22.5393082,0.0842397818 21.7154725,0.340855385 21.4590965,0.815124013 C21.2037933,1.28939264 21.6146384,1.80665446 22.3751847,1.96787892 C24.8466918,2.48782781 25.744544,3.11391615 25.744544,3.40882256 C25.744544,4.17060815 21.4086795,5.56990213 14.3256233,5.56990213 C7.2414944,5.56990213 2.90562992,4.17060815 2.90562992,3.40882256 C2.90562992,3.11391615 3.80348211,2.48782781 6.27606193,1.96855069 C7.03446277,1.807998 7.44423522,1.29140795 7.19000467,0.815795782 C6.93684682,0.342198922 6.11193841,0.0849115504 5.35031946,0.24277717 C1.90050745,0.968959021 -0.000321810823,2.09349965 -0.000321810823,3.40882256 C-0.000321810823,6.02200239 7.20716791,7.38972325 14.3256233,7.38972325 C21.4440787,7.38972325 28.6504957,6.02200239 28.6504957,3.40882256 C28.6504957,2.09349965 26.7507392,0.968959021 23.2987817,0.242105402" id="Fill-5" fill="#50555D" mask="url(#mask-2)"></path>
                </g>
            </g>
        </g>
    </g>
</svg>