<?xml version="1.0" encoding="UTF-8"?>
<svg width="23px" height="23px" viewBox="0 0 23 23" version="1.1" xmlns="http://www.w3.org/2000/svg" xmlns:xlink="http://www.w3.org/1999/xlink">
    <!-- Generator: Sketch 55.1 (78136) - https://sketchapp.com -->
    <title>Group 19</title>
    <desc>Created with Sketch.</desc>
    <g id="Welcome" stroke="none" stroke-width="1" fill="none" fill-rule="evenodd" stroke-linecap="round">
        <g id="Frontpage" transform="translate(-484.000000, -327.000000)" stroke="#F17C61" stroke-width="2.64">
            <g id="Group-2" transform="translate(460.000000, 313.000000)">
                <g id="Group-19" transform="translate(22.990238, 11.516004)">
                    <ellipse id="Oval" transform="translate(10.218975, 11.090638) rotate(-45.000000) translate(-10.218975, -11.090638) " cx="10.2189755" cy="11.0906381" rx="7.21897547" ry="7.09063813"></ellipse>
                    <path d="M19.8171303,15.6076978 L19.8171303,24.788766" id="Path-5" transform="translate(19.652277, 20.672439) rotate(-45.000000) translate(-19.652277, -20.672439) "></path>
                </g>
            </g>
        </g>
    </g>
</svg>