<?xml version="1.0" encoding="UTF-8"?>
<svg width="19px" height="19px" viewBox="0 0 19 19" version="1.1" xmlns="http://www.w3.org/2000/svg" xmlns:xlink="http://www.w3.org/1999/xlink">
    <!-- Generator: Sketch 55.1 (78136) - https://sketchapp.com -->
    <title>Group 8</title>
    <desc>Created with Sketch.</desc>
    <defs>
        <polygon id="path-1" points="0 0.270276923 18.7272941 0.270276923 18.7272941 18.8306215 0 18.8306215"></polygon>
    </defs>
    <g id="Welcome" stroke="none" stroke-width="1" fill="none" fill-rule="evenodd">
        <g id="Search-2" transform="translate(-1321.000000, -2022.000000)">
            <g id="Group-17" transform="translate(0.000000, 1985.000000)">
                <g id="Group-8" transform="translate(1321.000000, 37.000000)">
                    <g id="Group-3" transform="translate(0.000000, 0.099102)">
                        <mask id="mask-2" fill="white">
                            <use xlink:href="#path-1"></use>
                        </mask>
                        <g id="Clip-2"></g>
                        <path d="M5.32998431,1.86114462 C3.27612157,1.86114462 1.60523922,3.51677538 1.60523922,5.55271385 L1.60523922,13.5480369 C1.60523922,15.5836062 3.27612157,17.2399754 5.32998431,17.2399754 L13.3971608,17.2399754 C15.4510235,17.2399754 17.1222784,15.5836062 17.1222784,13.5480369 L17.1222784,5.55271385 C17.1222784,3.51677538 15.4510235,1.86114462 13.3971608,1.86114462 L5.32998431,1.86114462 Z M13.3971608,18.8306215 L5.32998431,18.8306215 C2.3909451,18.8306215 -7.45098039e-05,16.4608985 -7.45098039e-05,13.5480369 L-7.45098039e-05,5.55271385 C-7.45098039e-05,2.63985231 2.3909451,0.270129231 5.32998431,0.270129231 L13.3971608,0.270129231 C16.3362,0.270129231 18.7275922,2.63985231 18.7275922,5.55271385 L18.7275922,13.5480369 C18.7275922,16.4608985 16.3362,18.8306215 13.3971608,18.8306215 L13.3971608,18.8306215 Z" id="Fill-1" fill="#C7C7C7" mask="url(#mask-2)"></path>
                    </g>
                    <path d="M9.3636098,6.48801231 C7.60443333,6.48801231 6.17347255,7.90622769 6.17347255,9.64973538 C6.17347255,11.3925046 7.60443333,12.8110892 9.3636098,12.8110892 C11.1227863,12.8110892 12.5537471,11.3925046 12.5537471,9.64973538 C12.5537471,7.90622769 11.1227863,6.48801231 9.3636098,6.48801231 M9.3636098,14.4021046 C6.71962941,14.4021046 4.56853137,12.2701662 4.56853137,9.64973538 C4.56853137,7.02930462 6.71962941,4.89699692 9.3636098,4.89699692 C12.0075902,4.89699692 14.1586882,7.02930462 14.1586882,9.64973538 C14.1586882,12.2701662 12.0075902,14.4021046 9.3636098,14.4021046" id="Fill-4" fill="#C7C7C7"></path>
                    <path d="M15.5168529,4.62528 C15.5168529,5.25629538 15.0008725,5.76768 14.3641863,5.76768 C13.7278725,5.76768 13.2118922,5.25629538 13.2118922,4.62528 C13.2118922,3.99463385 13.7278725,3.48288 14.3641863,3.48288 C15.0008725,3.48288 15.5168529,3.99463385 15.5168529,4.62528" id="Fill-6" fill="#C7C7C7"></path>
                </g>
            </g>
        </g>
    </g>
</svg>