<?xml version="1.0" encoding="UTF-8"?>
<svg width="21px" height="21px" viewBox="0 0 21 21" version="1.1" xmlns="http://www.w3.org/2000/svg" xmlns:xlink="http://www.w3.org/1999/xlink">
    <!-- Generator: Sketch 55.1 (78136) - https://sketchapp.com -->
    <title>Group 3</title>
    <desc>Created with Sketch.</desc>
    <defs>
        <polygon id="path-1" points="0.00056 0.00014 20.6038 0.00014 20.6038 20.58987 0.00056 20.58987"></polygon>
    </defs>
    <g id="Welcome" stroke="none" stroke-width="1" fill="none" fill-rule="evenodd">
        <g id="Product-1" transform="translate(-1260.000000, -14.000000)">
            <g id="Group-19">
                <g id="Group-12" transform="translate(1260.000000, 14.000000)">
                    <g id="Group-11">
                        <g id="Group-3">
                            <mask id="mask-2" fill="white">
                                <use xlink:href="#path-1"></use>
                            </mask>
                            <g id="Clip-2"></g>
                            <path d="M2.05926,2.05884 L11.32446,2.05884 L11.32446,9.26534 L5.15956,9.26534 C4.59116,9.25764 4.12356,9.71194 4.11586,10.28034 C4.10746,10.84874 4.56176,11.31634 5.13086,11.32404 C5.13996,11.32474 5.14976,11.32474 5.15956,11.32404 L11.32446,11.32404 L11.32446,18.53124 L2.05926,18.53124 L2.05926,2.05884 Z M1.02956,0.00014 C0.46116,0.00014 0.00056,0.46074 0.00056,1.02914 L0.00056,19.56024 C0.00056,20.12864 0.46116,20.58994 1.02956,20.58994 L12.35416,20.58994 C12.92256,20.58994 13.38386,20.12864 13.38386,19.56024 L13.38386,11.32404 L17.09386,11.32404 L15.45866,12.96344 C15.04916,13.35754 15.03656,14.00924 15.43136,14.41944 C15.82546,14.82894 16.47716,14.84084 16.88666,14.44674 C16.89646,14.43694 16.90696,14.42644 16.91676,14.41734 L20.30266,11.02304 C20.70446,10.62054 20.70446,9.96884 20.30266,9.56704 L16.91676,6.17274 C16.72216,5.97394 16.45616,5.86124 16.17826,5.86124 C15.60916,5.86124 15.14856,6.32254 15.14926,6.89094 C15.14926,7.16814 15.26056,7.43344 15.45866,7.62664 L17.09386,9.26534 L13.38386,9.26534 L13.38386,1.02914 C13.38386,0.46074 12.92256,0.00014 12.35416,0.00014 L1.02956,0.00014 Z" id="Fill-1" fill="#FFFFFF" mask="url(#mask-2)"></path>
                        </g>
                    </g>
                </g>
            </g>
        </g>
    </g>
</svg>