<?xml version="1.0" encoding="UTF-8"?>
<svg width="59px" height="31px" viewBox="0 0 59 31" version="1.1" xmlns="http://www.w3.org/2000/svg" xmlns:xlink="http://www.w3.org/1999/xlink">
    <!-- Generator: Sketch 57.1 (83088) - https://sketch.com -->
    <title>Group 2 Copy 9</title>
    <desc>Created with Sketch.</desc>
    <defs>
        <polygon id="path-1" points="0 0.0001 30.5789458 0.0001 30.5789458 24.9861 0 24.9861"></polygon>
    </defs>
    <g id="Welcome" stroke="none" stroke-width="1" fill="none" fill-rule="evenodd">
        <g id="Search-3-Copy-3" transform="translate(-841.000000, -166.000000)">
            <g id="Group-2-Copy-9" transform="translate(841.000000, 166.000000)">
                <g id="Group-11" transform="translate(0.000000, 6.000000)">
                    <g id="Group-9">
                        <g id="Group-3">
                            <mask id="mask-2" fill="white">
                                <use xlink:href="#path-1"></use>
                            </mask>
                            <g id="Clip-2"></g>
                            <path d="M9.7368,19.4341 C10.5198,19.4341 11.1248,20.0391 11.1248,20.8221 C11.1248,21.6051 10.5198,22.2101 9.7368,22.2101 C8.9538,22.2101 8.3488,21.6051 8.3488,20.8221 C8.3488,20.0391 8.9538,19.4341 9.7368,19.4341 M9.7368,16.6581 C7.9348,16.6581 6.3988,17.8361 5.8248,19.4531 C5.7408,19.4391 5.6568,19.4331 5.5718,19.4341 L1.4078,19.4341 C0.6408,19.4231 0.0108,20.0361 -0.00034575614,20.8031 C-0.0112,21.5691 0.6018,22.1991 1.3688,22.2101 C1.3818,22.2111 1.3948,22.2111 1.4078,22.2101 L5.5718,22.2101 C5.6568,22.2111 5.7408,22.2041 5.8248,22.1881 C6.3978,23.8071 7.9338,24.9861 9.7368,24.9861 C11.5318,24.9861 13.0618,23.8171 13.6408,22.2101 L29.1708,22.2101 C29.9378,22.2221 30.5678,21.6081 30.5789458,20.8421 C30.5898,20.0751 29.9768,19.4451 29.2098,19.4341 L29.1708,19.4341 L13.6408,19.4341 C13.0618,17.8281 11.5318,16.6581 9.7368,16.6581 M20.8418,11.1051 C21.6248,11.1051 22.2298,11.7101 22.2298,12.4931 C22.2298,13.2761 21.6248,13.8811 20.8418,13.8811 C20.0868,13.8811 19.5118,13.3141 19.4698,12.5721 C19.4728,12.5181 19.4728,12.4651 19.4698,12.4121 C19.5128,11.6711 20.0878,11.1051 20.8418,11.1051 M20.8418,8.3291 C19.0468,8.3291 17.5168,9.4981 16.9378,11.1051 L1.4078,11.1051 C0.6408,11.0941 0.0108,11.7071 -0.00034575614,12.4741 C-0.0112,13.2401 0.6018,13.8711 1.3688,13.8811 C1.3818,13.8821 1.3948,13.8821 1.4078,13.8811 L16.9378,13.8811 C17.5168,15.4881 19.0468,16.6581 20.8418,16.6581 C22.6368,16.6581 24.1668,15.4881 24.7458,13.8811 L29.1708,13.8811 C29.9378,13.8921 30.5678,13.2801 30.5789458,12.5131 C30.5898,11.7461 29.9768,11.1161 29.2098,11.1051 L29.1708,11.1051 L24.7458,11.1051 C24.1668,9.4981 22.6368,8.3291 20.8418,8.3291 M12.5128,2.7761 C13.2968,2.7761 13.9018,3.3811 13.9018,4.1641 C13.9018,4.9481 13.2968,5.5531 12.5128,5.5531 C11.7298,5.5531 11.1248,4.9481 11.1248,4.1641 C11.1248,3.3811 11.7298,2.7761 12.5128,2.7761 M12.5128,0.0001 C10.7178,0.0001 9.1888,1.1701 8.6088,2.7761 L1.4078,2.7761 C0.6408,2.7661 0.0108,3.3781 -0.00034575614,4.1451 C-0.0112,4.9121 0.6018,5.5421 1.3688,5.5531 L1.4078,5.5531 L8.6088,5.5531 C9.1888,7.1591 10.7178,8.3291 12.5128,8.3291 C14.3078,8.3291 15.8378,7.1591 16.4178,5.5531 L29.1708,5.5531 C29.9378,5.5631 30.5678,4.9511 30.5789458,4.1841 C30.5898,3.4171 29.9768,2.7871 29.2098,2.7761 L29.1708,2.7761 L16.4178,2.7761 C15.8378,1.1701 14.3078,0.0001 12.5128,0.0001" id="Fill-1" fill="#8DCFD9" mask="url(#mask-2)"></path>
                        </g>
                    </g>
                </g>
                <g id="Group" transform="translate(29.000000, 0.000000)">
                    <rect id="Rectangle-7" stroke="#8DCFD9" stroke-width="3" fill="#FFFFFF" fill-rule="nonzero" x="1.5" y="1.5" width="27" height="17" rx="8.5"></rect>
                    <text id="10" font-family="Gilroy-Black, Gilroy" font-size="12" font-weight="700" fill="#8DCFD9">
                        <tspan x="9.236" y="14">10</tspan>
                    </text>
                </g>
            </g>
        </g>
    </g>
</svg>